-- Merging decision tree log ---
manifest
ADDED from D:\android\jyoti\app\NumberPad\numberpad\src\main\AndroidManifest.xml:1:1-33
INJECTED from D:\android\jyoti\app\NumberPad\numberpad\src\main\AndroidManifest.xml:1:1-33
INJECTED from D:\android\jyoti\app\NumberPad\numberpad\src\main\AndroidManifest.xml:1:1-33
INJECTED from D:\android\jyoti\app\NumberPad\numberpad\src\main\AndroidManifest.xml:1:1-33
INJECTED from D:\android\jyoti\app\NumberPad\numberpad\src\main\AndroidManifest.xml:1:1-33
INJECTED from D:\android\jyoti\app\NumberPad\numberpad\src\main\AndroidManifest.xml:1:1-33
INJECTED from D:\android\jyoti\app\NumberPad\numberpad\src\main\AndroidManifest.xml:1:1-33
	package
		ADDED from D:\android\jyoti\app\NumberPad\numberpad\src\main\AndroidManifest.xml:1:11-30
		INJECTED from D:\android\jyoti\app\NumberPad\numberpad\src\main\AndroidManifest.xml
		INJECTED from D:\android\jyoti\app\NumberPad\numberpad\src\main\AndroidManifest.xml
	android:versionName
		INJECTED from D:\android\jyoti\app\NumberPad\numberpad\src\main\AndroidManifest.xml
		ADDED from D:\android\jyoti\app\NumberPad\numberpad\src\main\AndroidManifest.xml:1:1-33
		INJECTED from D:\android\jyoti\app\NumberPad\numberpad\src\main\AndroidManifest.xml
	xmlns:android
		ADDED from D:\android\jyoti\app\NumberPad\numberpad\src\main\AndroidManifest.xml:1:1-33
	android:versionCode
		INJECTED from D:\android\jyoti\app\NumberPad\numberpad\src\main\AndroidManifest.xml
		ADDED from D:\android\jyoti\app\NumberPad\numberpad\src\main\AndroidManifest.xml:1:1-33
		INJECTED from D:\android\jyoti\app\NumberPad\numberpad\src\main\AndroidManifest.xml
uses-sdk
INJECTED from D:\android\jyoti\app\NumberPad\numberpad\src\main\AndroidManifest.xml reason: use-sdk injection requested
INJECTED from D:\android\jyoti\app\NumberPad\numberpad\src\main\AndroidManifest.xml
INJECTED from D:\android\jyoti\app\NumberPad\numberpad\src\main\AndroidManifest.xml
INJECTED from D:\android\jyoti\app\NumberPad\numberpad\src\main\AndroidManifest.xml
INJECTED from D:\android\jyoti\app\NumberPad\numberpad\src\main\AndroidManifest.xml
	android:targetSdkVersion
		INJECTED from D:\android\jyoti\app\NumberPad\numberpad\src\main\AndroidManifest.xml
		ADDED from D:\android\jyoti\app\NumberPad\numberpad\src\main\AndroidManifest.xml
		INJECTED from D:\android\jyoti\app\NumberPad\numberpad\src\main\AndroidManifest.xml
	android:minSdkVersion
		INJECTED from D:\android\jyoti\app\NumberPad\numberpad\src\main\AndroidManifest.xml
		ADDED from D:\android\jyoti\app\NumberPad\numberpad\src\main\AndroidManifest.xml
		INJECTED from D:\android\jyoti\app\NumberPad\numberpad\src\main\AndroidManifest.xml
